rram_trace.vcd
$date
     Jan 14, 2021       14:53:39
$end

$version
 SystemC 2.3.3-Accellera --- Jan 11 2021 15:36:40
$end

$timescale
     1 ps
$end

$scope module SystemC $end
$var wire    1  aaaaa  clk       $end
$var wire    1  aaaab  reset       $end
$var wire    8  aaaac  addr [7:0]  $end
$var wire   16  aaaad  data_in [15:0]  $end
$var wire   16  aaaae  data_out [15:0]  $end
$var wire    1  aaaaf  Read_Write       $end
$var wire    1  aaaag  mul_enable       $end
$upscope $end
$enddefinitions  $end

$comment
All initial values are dumped below at time 0 sec = 0 timescale units.
$end

$dumpvars
1aaaaa
1aaaab
b0 aaaac
b0 aaaad
b1010110010001 aaaae
0aaaaf
0aaaag
$end

#1000
0aaaaa

#2000
1aaaaa
0aaaab
b1 aaaad
1aaaaf

#3000
0aaaaa

#4000
1aaaaa

#5000
0aaaaa

#6000
1aaaaa

#7000
0aaaaa

#8000
1aaaaa

#9000
0aaaaa

#10000
1aaaaa

#11000
0aaaaa

#12000
1aaaaa
b1 aaaac
b11 aaaad

#13000
0aaaaa

#14000
1aaaaa

#15000
0aaaaa

#16000
1aaaaa

#17000
0aaaaa

#18000
1aaaaa

#19000
0aaaaa

#20000
1aaaaa

#21000
0aaaaa

#22000
1aaaaa
b100 aaaac
b101 aaaad

#23000
0aaaaa

#24000
1aaaaa

#25000
0aaaaa

#26000
1aaaaa

#27000
0aaaaa

#28000
1aaaaa

#29000
0aaaaa

#30000
1aaaaa

#31000
0aaaaa

#32000
1aaaaa
b101 aaaac

#33000
0aaaaa

#34000
1aaaaa

#35000
0aaaaa

#36000
1aaaaa

#37000
0aaaaa

#38000
1aaaaa

#39000
0aaaaa

#40000
1aaaaa

#41000
0aaaaa

#42000
1aaaaa
b1 aaaac
b11 aaaae
0aaaaf

#43000
0aaaaa

#44000
1aaaaa

#45000
0aaaaa

#46000
1aaaaa

#47000
0aaaaa

#48000
1aaaaa

#49000
0aaaaa

#50000
1aaaaa

#51000
0aaaaa

#52000
1aaaaa
b10001 aaaac
b0 aaaae

#53000
0aaaaa

#54000
1aaaaa

#55000
0aaaaa

#56000
1aaaaa

#57000
0aaaaa

#58000
1aaaaa

#59000
0aaaaa

#60000
1aaaaa

#61000
0aaaaa

#62000
1aaaaa
b101 aaaac
b101 aaaae

#63000
0aaaaa

#64000
1aaaaa

#65000
0aaaaa

#66000
1aaaaa

#67000
0aaaaa

#68000
1aaaaa

#69000
0aaaaa

#70000
1aaaaa

#71000
0aaaaa

#72000
1aaaaa
1aaaab
b0 aaaae

#73000
0aaaaa

#74000
1aaaaa

#75000
0aaaaa

#76000
1aaaaa

#77000
0aaaaa

#78000
1aaaaa

#79000
0aaaaa

#80000
1aaaaa

#81000
0aaaaa

#82000
1aaaaa
0aaaab
b0 aaaac
b1000100010001 aaaad
1aaaaf

#83000
0aaaaa

#84000
1aaaaa

#85000
0aaaaa

#86000
1aaaaa

#87000
0aaaaa

#88000
1aaaaa

#89000
0aaaaa

#90000
1aaaaa

#91000
0aaaaa

#92000
1aaaaa
b1000100010001 aaaae
0aaaaf

#93000
0aaaaa

#94000
1aaaaa
b1 aaaac
b110011 aaaad
1aaaaf

#95000
0aaaaa

#96000
1aaaaa

#97000
0aaaaa

#98000
1aaaaa

#99000
0aaaaa

#100000
1aaaaa

#101000
0aaaaa

#102000
1aaaaa

#103000
0aaaaa

#104000
1aaaaa
b110011 aaaae
0aaaaf

#105000
0aaaaa

#106000
1aaaaa
b1000 aaaac
b1111111111111111 aaaad
1aaaaf

#107000
0aaaaa

#108000
1aaaaa

#109000
0aaaaa

#110000
1aaaaa

#111000
0aaaaa

#112000
1aaaaa

#113000
0aaaaa

#114000
1aaaaa

#115000
0aaaaa

#116000
1aaaaa
b1001 aaaac
b100 aaaad

#117000
0aaaaa

#118000
1aaaaa

#119000
0aaaaa

#120000
1aaaaa

#121000
0aaaaa

#122000
1aaaaa

#123000
0aaaaa

#124000
1aaaaa

#125000
0aaaaa

#126000
1aaaaa
b0 aaaac
b110011001100011 aaaae
0aaaaf
1aaaag

#127000
0aaaaa

#128000
1aaaaa

#129000
0aaaaa

#130000
1aaaaa

#131000
0aaaaa

#132000
1aaaaa

#133000
0aaaaa

#134000
1aaaaa

#135000
0aaaaa

#136000
1aaaaa
b1 aaaac
b11 aaaae

#137000
0aaaaa

#138000
1aaaaa

#139000
0aaaaa

#140000
1aaaaa

#141000
0aaaaa

#142000
1aaaaa

#143000
0aaaaa

#144000
1aaaaa

#145000
0aaaaa

#146000
1aaaaa
b1000 aaaac
b1111111111111100 aaaae

#147000
0aaaaa

#148000
1aaaaa

#149000
0aaaaa

#150000
1aaaaa

#151000
0aaaaa

#152000
1aaaaa

#153000
0aaaaa

#154000
1aaaaa

#155000
0aaaaa

#156000
1aaaaa
b1001 aaaac
b11 aaaae

